Sampling In R
…
   Min. 1st Qu.  Median    Mean 3rd Qu.    Max. 
   3926    4906    5215    5312    5601    7712 

The code below takes a sample of rows of web_data

set.seed(100)

#take a sample of 35 rows from the web_data dataset
data_sample <-sample(1:nrow(web_data), 35)

display the 35 rows you just sampled:

web_data[data_sample,]

# A tibble: 35 × 15
   rownames district school      county grades students teachers calworks  lunch
      <dbl>    <dbl> <chr>       <chr>  <chr>     <dbl>    <dbl>    <dbl>  <dbl>
 1      202    69724 Whisman El… Santa… KK-08      1678    88.3      5.48 38.2  
 2      358    70979 Two Rock U… Sonoma KK-06       189    11.6      2.07 32.1  
 3      112    64667 Lancaster … Los A… KK-08     13668   648.      28.2  56.3  
 4      206    62927 Loleta Uni… Humbo… KK-08       168    11.0     29.2  63.7  
 5      407    61713 Lafayette … Contr… KK-08      3469   172.       0     0.173
 6        4    61457 Golden Fea… Butte  KK-08       243    14       36.5  77.0  
 7      311    63990 Pioneer Un… Kings  KK-08       992    47.0      3.73 22.9  
 8      326    68163 Julian Uni… San D… KK-08       451    25        8.65 11.8  
 9       98    63073 Brawley El… Imper… KK-08      3760   184.      26.9  65.8  
10      391    69773 Mountain E… Santa… KK-06       158     7.80    13.8  16.2  
# ℹ 25 more rows
# ℹ 6 more variables: computer <dbl>, expenditure <dbl>, income <dbl>,
#   english <dbl>, read <dbl>, math <dbl>
…
