STAT 5000 Week April 3 - 7 2023
…
#load dplyr
library(dplyr)

#load ggplot2
library(ggplot2)

Lets work with the flights Data Frame (or Tibble - a better, well-behaved data frame in Tidyverse )

Call up the Tibble flights

flights

# A tibble: 336,776 × 19
    year month   day dep_time sched_dep_time dep_delay arr_time sched_arr_time
   <int> <int> <int>    <int>          <int>     <dbl>    <int>          <int>
 1  2013     1     1      517            515         2      830            819
 2  2013     1     1      533            529         4      850            830
 3  2013     1     1      542            540         2      923            850
 4  2013     1     1      544            545        -1     1004           1022
 5  2013     1     1      554            600        -6      812            837
 6  2013     1     1      554            558        -4      740            728
 7  2013     1     1      555            600        -5      913            854
 8  2013     1     1      557            600        -3      709            723
 9  2013     1     1      557            600        -3      838            846
10  2013     1     1      558            600        -2      753            745
# ℹ 336,766 more rows
# ℹ 11 more variables: arr_delay <dbl>, carrier <chr>, flight <int>,
#   tailnum <chr>, origin <chr>, dest <chr>, air_time <dbl>, distance <dbl>,
#   hour <dbl>, minute <dbl>, time_hour <dttm>
…
view(weather)

Filter out data where origin is “EWR”, month is January and day is from 1 to 15 into a data frame/Tibble called early_january_weather

early_january_weather <-weather %>%
  filter(origin=="EWR" & month==1 & day <=15)

Check the data you just extracted

early_january_weather

# A tibble: 358 × 15
   origin  year month   day  hour  temp  dewp humid wind_dir wind_speed
   <chr>  <int> <int> <int> <int> <dbl> <dbl> <dbl>    <dbl>      <dbl>
 1 EWR     2013     1     1     1  39.0  26.1  59.4      270      10.4 
 2 EWR     2013     1     1     2  39.0  27.0  61.6      250       8.06
 3 EWR     2013     1     1     3  39.0  28.0  64.4      240      11.5 
 4 EWR     2013     1     1     4  39.9  28.0  62.2      250      12.7 
 5 EWR     2013     1     1     5  39.0  28.0  64.4      260      12.7 
 6 EWR     2013     1     1     6  37.9  28.0  67.2      240      11.5 
 7 EWR     2013     1     1     7  39.0  28.0  64.4      240      15.0 
 8 EWR     2013     1     1     8  39.9  28.0  62.2      250      10.4 
 9 EWR     2013     1     1     9  39.9  28.0  62.2      260      15.0 
10 EWR     2013     1     1    10  41    28.0  59.6      260      13.8 
# ℹ 348 more rows
# ℹ 5 more variables: wind_gust <dbl>, precip <dbl>, pressure <dbl>,
#   visib <dbl>, time_hour <dttm>
…
