Reshaping Data
…
Recall that the gapminder data we used had a column named year and a column named fertility_rate. We would like to convert this subset into that format. We will use the gather function for this.

In the third argument of the gather function you specify the columns that will be gathered. The default is to gather all columns, so in most cases we have to specify the columns. Here we want columns 1960, 1961, up to 2015. The first argument sets the column/variable name that will hold the variable that is currently kept in the wide data column names. In our case it makes sense to set the name to year, but we can name it anything. The second argument sets the column/variable name that will hold the values in the column cells. In this case we call it fertility since this is what is stored in this file. Note that nowhere in this file does it tell us this is fertility data. Instead, this information was kept in the file name.

The gathering code looks like this:

new_tidy_data <- wide_data %>% gather(year, fertility, `1960`:`2015`)
new_tidy_data

# A tibble: 112 × 3
   country     year  fertility
   <chr>       <chr>     <dbl>
 1 Germany     1960       2.41
 2 South Korea 1960       6.16
 3 Germany     1961       2.44
 4 South Korea 1961       5.99
 5 Germany     1962       2.47
 6 South Korea 1962       5.79
 7 Germany     1963       2.49
 8 South Korea 1963       5.57
 9 Germany     1964       2.49
10 South Korea 1964       5.36
# ℹ 102 more rows
…
dat$key[1:5]

[1] "1960" "1960" "1961" "1961" "1962"

Encoding multiple variables in a column name is such a common problem that the readr package includes a function to separate these columns into two or more. Apart from the data, the separate function takes three arguments: the name of the column to be separated, the names to be used for the new columns and the character that separates the variables. So a first attempt at this is:

Note that "_" is the default separator

dat %>% separate(key,c("year","variable_name"),"_")

Because “_” is the default separator we actually can simply write:

dat %>% separate(key,c("year","variable_name"))

# A tibble: 112 × 4
   country     year  variable_name value
   <chr>       <chr> <chr>         <dbl>
 1 Germany     1960  <NA>           2.41
 2 South Korea 1960  <NA>           6.16
 3 Germany     1961  <NA>           2.44
 4 South Korea 1961  <NA>           5.99
 5 Germany     1962  <NA>           2.47
 6 South Korea 1962  <NA>           5.79
 7 Germany     1963  <NA>           2.49
 8 South Korea 1963  <NA>           5.57
 9 Germany     1964  <NA>           2.49
10 South Korea 1964  <NA>           5.36
# ℹ 102 more rows
…
